Data Cleaning and Management (FQ23) - Week 2 Workbook
…
it’s good practice to remove these columns to stop your environment from becoming cluttered and eating up your RAM.

In our bfi data, most of these have been pre-removed, so instead, we’ll imagine we don’t want to use any indicators of Agreeableness (A1-A5) and that we aren’t interested in gender.

With select(), there are few ways choose variables. We can bare quote name the ones we want to keep, bare quote names we want to remove, or use any of a number of select() helper functions.

A. Bare quote columns we want to keep:

Code
bfi %>%
  select(C1, C2, C3, C4, C5) %>%
  print(n = 6)

# A tibble: 2,800 × 5
     C1    C2    C3    C4    C5
  <int> <int> <int> <int> <int>
1     2     3     3     4     4
2     5     4     4     3     4
3     4     5     4     2     5
4     4     4     3     5     5
5     4     4     5     3     2
6     6     6     6     1     3
# ℹ 2,794 more rows

Code
bfi %>%
  select(C1:C5) %>%
  print(n = 6)

# A tibble: 2,800 × 5
     C1    C2    C3    C4    C5
  <int> <int> <int> <int> <int>
1     2     3     3     4     4
2     5     4     4     3     4
3     4     5     4     2     5
4     4     4     3     5     5
5     4     4     5     3     2
6     6     6     6     1     3
# ℹ 2,794 more rows

B. Bare quote columns we don’t want to keep:

Code
bfi %>% 
  select(-(A1:A5), -gender) %>% # Note the `()` around the columns
  print(n = 6)

# A tibble: 2,800 × 22
     C1    C2    C3    C4    C5    E1    E2    E3    E4    E5    N1    N2    N3
  <int> <int> <int> <int> <int> <int> <int> <int> <int> <int> <int> <int> <int>
1     2     3     3     4     4     3     3     3     4     4     3     4     2
2     5     4     4     3     4     1     1     6     4     3     3     3     3
3     4     5     4     2     5     2     4     4     4     5     4     5     4
4     4     4     3     5     5     5     3     4     4     4     2     5     2
5     4     4     5     3     2     2     2     5     4     5     2     3     4
6     6     6     6     1     3     2     1     6     5     6     3     5     2
# ℹ 2,794 more rows
# ℹ 9 more variables: N4 <int>, N5 <int>, O1 <int>, O2 <int>, O3 <int>,
#   O4 <int>, O5 <int>, education <chr>, age <int>
…
Sometimes, either in order to get a better sense of our data or in order to well, order our data, we want to sort it

Although there is a base R sort() function, the arrange() function is tidyverse version that plays nicely with other tidyverse functions.

So in our previous examples, we could also arrange() our data by age or education, rather than simply filtering. (Or as we’ll see later, we can do both!)

Code
# sort by age
bfi %>% 
  select(gender:age) %>%
  arrange(age) %>% 
  print(n = 6)

# A tibble: 2,800 × 3
  gender education       age
   <int> <chr>         <int>
1      1 Higher Degree     3
2      2 <NA>              9
3      2 Some College     11
4      2 <NA>             11
5      2 <NA>             11
6      2 <NA>             12
# ℹ 2,794 more rows

Code
# sort by education
bfi %>%
  select(gender:age) %>%
  arrange(education) %>%
  print(n = 6)

# A tibble: 2,800 × 3
  gender education   age
   <int> <chr>     <int>
1      1 Below HS     19
2      1 Below HS     21
3      1 Below HS     17
4      1 Below HS     18
5      1 Below HS     18
6      2 Below HS     18
# ℹ 2,794 more rows

We can also arrange by multiple columns, like if we wanted to sort by gender then education:

Code
bfi %>%
  select(gender:age) %>%
  arrange(gender, education) %>% 
  print(n = 6)

# A tibble: 2,800 × 3
  gender education   age
   <int> <chr>     <int>
1      1 Below HS     19
2      1 Below HS     21
3      1 Below HS     17
4      1 Below HS     18
5      1 Below HS     18
6      1 Below HS     32
# ℹ 2,794 more rows
…
5. group_by()

The group_by() function is the “split” of the method

It basically implicitly breaks the data set into chunks by whatever bare quoted column(s)/variable(s) are supplied as arguments.

So imagine that we wanted to group_by() education levels to get average ages at each level

Code
bfi %>%
  select(starts_with("C"), age, gender, education) %>%
  group_by(education) %>%
  print(n = 6)

# A tibble: 2,800 × 8
# Groups:   education [6]
     C1    C2    C3    C4    C5   age gender education   
  <int> <int> <int> <int> <int> <int>  <int> <chr>       
1     2     3     3     4     4    16      1 <NA>        
2     5     4     4     3     4    18      2 <NA>        
3     4     5     4     2     5    17      2 <NA>        
4     4     4     3     5     5    17      2 <NA>        
5     4     4     5     3     2    17      1 <NA>        
6     6     6     6     1     3    21      2 Some College
# ℹ 2,794 more rows

Hadley’s first law of data cleaning: “What is split, must be combined”

This is super easy with the ungroup() function:

Code
bfi %>%
  select(starts_with("C"), age, gender, education) %>%
  group_by(education) %>%
  ungroup() %>%
  print(n = 6)

# A tibble: 2,800 × 8
     C1    C2    C3    C4    C5   age gender education   
  <int> <int> <int> <int> <int> <int>  <int> <chr>       
1     2     3     3     4     4    16      1 <NA>        
2     5     4     4     3     4    18      2 <NA>        
3     4     5     4     2     5    17      2 <NA>        
4     4     4     3     5     5    17      2 <NA>        
5     4     4     5     3     2    17      1 <NA>        
6     6     6     6     1     3    21      2 Some College
# ℹ 2,794 more rows

Multiple group_by() calls overwrites previous calls:

Code
bfi %>%
  select(starts_with("C"), age, gender, education) %>%
  group_by(education) %>%
  group_by(gender, age) %>%
  print(n = 6)

# A tibble: 2,800 × 8
# Groups:   gender, age [115]
     C1    C2    C3    C4    C5   age gender education   
  <int> <int> <int> <int> <int> <int>  <int> <chr>       
1     2     3     3     4     4    16      1 <NA>        
2     5     4     4     3     4    18      2 <NA>        
3     4     5     4     2     5    17      2 <NA>        
4     4     4     3     5     5    17      2 <NA>        
5     4     4     5     3     2    17      1 <NA>        
6     6     6     6     1     3    21      2 Some College
# ℹ 2,794 more rows
…
When you use mutate(), the resulting data frame will have the same number of rows you started with

You are directly mutating the existing data frame, either modifying existing columns or creating new ones

To demonstrate, let’s add a column that indicated average age levels within each age group

Code
bfi %>%
  select(starts_with("C"), age, gender, education) %>%
  arrange(education) %>%
  group_by(education) %>% 
  mutate(age_by_edu = mean(age, na.rm = T)) %>%
  print(n = 6)

# A tibble: 2,800 × 9
# Groups:   education [6]
     C1    C2    C3    C4    C5   age gender education age_by_edu
  <int> <int> <int> <int> <int> <int>  <int> <chr>          <dbl>
1     6     6     3     4     5    19      1 Below HS        25.1
2     4     3     5     3     2    21      1 Below HS        25.1
3     5     5     5     2     2    17      1 Below HS        25.1
4     5     5     4     1     1    18      1 Below HS        25.1
5     4     5     4     3     3    18      1 Below HS        25.1
6     3     2     3     4     6    18      2 Below HS        25.1
# ℹ 2,794 more rows
…
